(kicad_sch (version 20211123) (generator eeschema)

  (uuid 29d2d95a-9e61-46b7-a33a-44cc6e18ab95)

  (paper "A4")

  (lib_symbols
    (symbol "4xxx_IEEE:4049" (pin_names (offset 0.762)) (in_bom yes) (on_board yes)
      (property "Reference" "U" (id 0) (at 7.62 7.62 0)
        (effects (font (size 1.27 1.27)))
      )
      (property "Value" "4049" (id 1) (at 8.89 -11.43 0)
        (effects (font (size 1.27 1.27)))
      )
      (property "Footprint" "" (id 2) (at 0 0 0)
        (effects (font (size 1.27 1.27)) hide)
      )
      (property "Datasheet" "" (id 3) (at 0 0 0)
        (effects (font (size 1.27 1.27)) hide)
      )
      (symbol "4049_0_0"
        (polyline
          (pts
            (xy -1.27 1.27)
            (xy -1.27 -1.27)
            (xy 0 0)
            (xy -1.27 1.27)
            (xy -1.27 1.27)
          )
          (stroke (width 0) (type default) (color 0 0 0 0))
          (fill (type none))
        )
        (pin power_in line (at 0 6.35 270) (length 0)
          (name "Vdd" (effects (font (size 1.27 1.27))))
          (number "1" (effects (font (size 1.27 1.27))))
        )
        (pin power_in line (at 0 -6.35 90) (length 0)
          (name "Vss" (effects (font (size 1.27 1.27))))
          (number "8" (effects (font (size 1.27 1.27))))
        )
      )
      (symbol "4049_0_1"
        (rectangle (start -6.35 6.35) (end 6.35 -6.35)
          (stroke (width 0) (type default) (color 0 0 0 0))
          (fill (type none))
        )
      )
      (symbol "4049_1_1"
        (pin output inverted (at 13.97 0 180) (length 7.62)
          (name "~" (effects (font (size 1.27 1.27))))
          (number "2" (effects (font (size 1.27 1.27))))
        )
        (pin input line (at -13.97 0 0) (length 7.62)
          (name "~" (effects (font (size 1.27 1.27))))
          (number "3" (effects (font (size 1.27 1.27))))
        )
      )
      (symbol "4049_2_1"
        (pin output inverted (at 13.97 0 180) (length 7.62)
          (name "~" (effects (font (size 1.27 1.27))))
          (number "4" (effects (font (size 1.27 1.27))))
        )
        (pin input line (at -13.97 0 0) (length 7.62)
          (name "~" (effects (font (size 1.27 1.27))))
          (number "5" (effects (font (size 1.27 1.27))))
        )
      )
      (symbol "4049_3_1"
        (pin output inverted (at 13.97 0 180) (length 7.62)
          (name "~" (effects (font (size 1.27 1.27))))
          (number "6" (effects (font (size 1.27 1.27))))
        )
        (pin input line (at -13.97 0 0) (length 7.62)
          (name "~" (effects (font (size 1.27 1.27))))
          (number "7" (effects (font (size 1.27 1.27))))
        )
      )
      (symbol "4049_4_1"
        (pin output inverted (at 13.97 0 180) (length 7.62)
          (name "~" (effects (font (size 1.27 1.27))))
          (number "10" (effects (font (size 1.27 1.27))))
        )
        (pin input line (at -13.97 0 0) (length 7.62)
          (name "~" (effects (font (size 1.27 1.27))))
          (number "9" (effects (font (size 1.27 1.27))))
        )
      )
      (symbol "4049_5_1"
        (pin input line (at -13.97 0 0) (length 7.62)
          (name "~" (effects (font (size 1.27 1.27))))
          (number "11" (effects (font (size 1.27 1.27))))
        )
        (pin output inverted (at 13.97 0 180) (length 7.62)
          (name "~" (effects (font (size 1.27 1.27))))
          (number "12" (effects (font (size 1.27 1.27))))
        )
      )
      (symbol "4049_6_1"
        (pin input line (at -13.97 0 0) (length 7.62)
          (name "~" (effects (font (size 1.27 1.27))))
          (number "14" (effects (font (size 1.27 1.27))))
        )
        (pin output inverted (at 13.97 0 180) (length 7.62)
          (name "~" (effects (font (size 1.27 1.27))))
          (number "15" (effects (font (size 1.27 1.27))))
        )
      )
    )
    (symbol "Connector_Generic:Conn_01x01" (pin_names (offset 1.016) hide) (in_bom yes) (on_board yes)
      (property "Reference" "J" (id 0) (at 0 2.54 0)
        (effects (font (size 1.27 1.27)))
      )
      (property "Value" "Conn_01x01" (id 1) (at 0 -2.54 0)
        (effects (font (size 1.27 1.27)))
      )
      (property "Footprint" "" (id 2) (at 0 0 0)
        (effects (font (size 1.27 1.27)) hide)
      )
      (property "Datasheet" "~" (id 3) (at 0 0 0)
        (effects (font (size 1.27 1.27)) hide)
      )
      (property "ki_keywords" "connector" (id 4) (at 0 0 0)
        (effects (font (size 1.27 1.27)) hide)
      )
      (property "ki_description" "Generic connector, single row, 01x01, script generated (kicad-library-utils/schlib/autogen/connector/)" (id 5) (at 0 0 0)
        (effects (font (size 1.27 1.27)) hide)
      )
      (property "ki_fp_filters" "Connector*:*_1x??_*" (id 6) (at 0 0 0)
        (effects (font (size 1.27 1.27)) hide)
      )
      (symbol "Conn_01x01_1_1"
        (rectangle (start -1.27 0.127) (end 0 -0.127)
          (stroke (width 0.1524) (type default) (color 0 0 0 0))
          (fill (type none))
        )
        (rectangle (start -1.27 1.27) (end 1.27 -1.27)
          (stroke (width 0.254) (type default) (color 0 0 0 0))
          (fill (type background))
        )
        (pin passive line (at -5.08 0 0) (length 3.81)
          (name "Pin_1" (effects (font (size 1.27 1.27))))
          (number "1" (effects (font (size 1.27 1.27))))
        )
      )
    )
    (symbol "Connector_Generic:Conn_01x02" (pin_names (offset 1.016) hide) (in_bom yes) (on_board yes)
      (property "Reference" "J" (id 0) (at 0 2.54 0)
        (effects (font (size 1.27 1.27)))
      )
      (property "Value" "Conn_01x02" (id 1) (at 0 -5.08 0)
        (effects (font (size 1.27 1.27)))
      )
      (property "Footprint" "" (id 2) (at 0 0 0)
        (effects (font (size 1.27 1.27)) hide)
      )
      (property "Datasheet" "~" (id 3) (at 0 0 0)
        (effects (font (size 1.27 1.27)) hide)
      )
      (property "ki_keywords" "connector" (id 4) (at 0 0 0)
        (effects (font (size 1.27 1.27)) hide)
      )
      (property "ki_description" "Generic connector, single row, 01x02, script generated (kicad-library-utils/schlib/autogen/connector/)" (id 5) (at 0 0 0)
        (effects (font (size 1.27 1.27)) hide)
      )
      (property "ki_fp_filters" "Connector*:*_1x??_*" (id 6) (at 0 0 0)
        (effects (font (size 1.27 1.27)) hide)
      )
      (symbol "Conn_01x02_1_1"
        (rectangle (start -1.27 -2.413) (end 0 -2.667)
          (stroke (width 0.1524) (type default) (color 0 0 0 0))
          (fill (type none))
        )
        (rectangle (start -1.27 0.127) (end 0 -0.127)
          (stroke (width 0.1524) (type default) (color 0 0 0 0))
          (fill (type none))
        )
        (rectangle (start -1.27 1.27) (end 1.27 -3.81)
          (stroke (width 0.254) (type default) (color 0 0 0 0))
          (fill (type background))
        )
        (pin passive line (at -5.08 0 0) (length 3.81)
          (name "Pin_1" (effects (font (size 1.27 1.27))))
          (number "1" (effects (font (size 1.27 1.27))))
        )
        (pin passive line (at -5.08 -2.54 0) (length 3.81)
          (name "Pin_2" (effects (font (size 1.27 1.27))))
          (number "2" (effects (font (size 1.27 1.27))))
        )
      )
    )
    (symbol "Device:LED" (pin_numbers hide) (pin_names (offset 1.016) hide) (in_bom yes) (on_board yes)
      (property "Reference" "D" (id 0) (at 0 2.54 0)
        (effects (font (size 1.27 1.27)))
      )
      (property "Value" "LED" (id 1) (at 0 -2.54 0)
        (effects (font (size 1.27 1.27)))
      )
      (property "Footprint" "" (id 2) (at 0 0 0)
        (effects (font (size 1.27 1.27)) hide)
      )
      (property "Datasheet" "~" (id 3) (at 0 0 0)
        (effects (font (size 1.27 1.27)) hide)
      )
      (property "ki_keywords" "LED diode" (id 4) (at 0 0 0)
        (effects (font (size 1.27 1.27)) hide)
      )
      (property "ki_description" "Light emitting diode" (id 5) (at 0 0 0)
        (effects (font (size 1.27 1.27)) hide)
      )
      (property "ki_fp_filters" "LED* LED_SMD:* LED_THT:*" (id 6) (at 0 0 0)
        (effects (font (size 1.27 1.27)) hide)
      )
      (symbol "LED_0_1"
        (polyline
          (pts
            (xy -1.27 -1.27)
            (xy -1.27 1.27)
          )
          (stroke (width 0.254) (type default) (color 0 0 0 0))
          (fill (type none))
        )
        (polyline
          (pts
            (xy -1.27 0)
            (xy 1.27 0)
          )
          (stroke (width 0) (type default) (color 0 0 0 0))
          (fill (type none))
        )
        (polyline
          (pts
            (xy 1.27 -1.27)
            (xy 1.27 1.27)
            (xy -1.27 0)
            (xy 1.27 -1.27)
          )
          (stroke (width 0.254) (type default) (color 0 0 0 0))
          (fill (type none))
        )
        (polyline
          (pts
            (xy -3.048 -0.762)
            (xy -4.572 -2.286)
            (xy -3.81 -2.286)
            (xy -4.572 -2.286)
            (xy -4.572 -1.524)
          )
          (stroke (width 0) (type default) (color 0 0 0 0))
          (fill (type none))
        )
        (polyline
          (pts
            (xy -1.778 -0.762)
            (xy -3.302 -2.286)
            (xy -2.54 -2.286)
            (xy -3.302 -2.286)
            (xy -3.302 -1.524)
          )
          (stroke (width 0) (type default) (color 0 0 0 0))
          (fill (type none))
        )
      )
      (symbol "LED_1_1"
        (pin passive line (at -3.81 0 0) (length 2.54)
          (name "K" (effects (font (size 1.27 1.27))))
          (number "1" (effects (font (size 1.27 1.27))))
        )
        (pin passive line (at 3.81 0 180) (length 2.54)
          (name "A" (effects (font (size 1.27 1.27))))
          (number "2" (effects (font (size 1.27 1.27))))
        )
      )
    )
    (symbol "Device:R" (pin_numbers hide) (pin_names (offset 0)) (in_bom yes) (on_board yes)
      (property "Reference" "R" (id 0) (at 2.032 0 90)
        (effects (font (size 1.27 1.27)))
      )
      (property "Value" "R" (id 1) (at 0 0 90)
        (effects (font (size 1.27 1.27)))
      )
      (property "Footprint" "" (id 2) (at -1.778 0 90)
        (effects (font (size 1.27 1.27)) hide)
      )
      (property "Datasheet" "~" (id 3) (at 0 0 0)
        (effects (font (size 1.27 1.27)) hide)
      )
      (property "ki_keywords" "R res resistor" (id 4) (at 0 0 0)
        (effects (font (size 1.27 1.27)) hide)
      )
      (property "ki_description" "Resistor" (id 5) (at 0 0 0)
        (effects (font (size 1.27 1.27)) hide)
      )
      (property "ki_fp_filters" "R_*" (id 6) (at 0 0 0)
        (effects (font (size 1.27 1.27)) hide)
      )
      (symbol "R_0_1"
        (rectangle (start -1.016 -2.54) (end 1.016 2.54)
          (stroke (width 0.254) (type default) (color 0 0 0 0))
          (fill (type none))
        )
      )
      (symbol "R_1_1"
        (pin passive line (at 0 3.81 270) (length 1.27)
          (name "~" (effects (font (size 1.27 1.27))))
          (number "1" (effects (font (size 1.27 1.27))))
        )
        (pin passive line (at 0 -3.81 90) (length 1.27)
          (name "~" (effects (font (size 1.27 1.27))))
          (number "2" (effects (font (size 1.27 1.27))))
        )
      )
    )
    (symbol "Diode:1N4148" (pin_numbers hide) (pin_names (offset 1.016) hide) (in_bom yes) (on_board yes)
      (property "Reference" "D" (id 0) (at 0 2.54 0)
        (effects (font (size 1.27 1.27)))
      )
      (property "Value" "1N4148" (id 1) (at 0 -2.54 0)
        (effects (font (size 1.27 1.27)))
      )
      (property "Footprint" "Diode_THT:D_DO-35_SOD27_P7.62mm_Horizontal" (id 2) (at 0 -4.445 0)
        (effects (font (size 1.27 1.27)) hide)
      )
      (property "Datasheet" "https://assets.nexperia.com/documents/data-sheet/1N4148_1N4448.pdf" (id 3) (at 0 0 0)
        (effects (font (size 1.27 1.27)) hide)
      )
      (property "ki_keywords" "diode" (id 4) (at 0 0 0)
        (effects (font (size 1.27 1.27)) hide)
      )
      (property "ki_description" "100V 0.15A standard switching diode, DO-35" (id 5) (at 0 0 0)
        (effects (font (size 1.27 1.27)) hide)
      )
      (property "ki_fp_filters" "D*DO?35*" (id 6) (at 0 0 0)
        (effects (font (size 1.27 1.27)) hide)
      )
      (symbol "1N4148_0_1"
        (polyline
          (pts
            (xy -1.27 1.27)
            (xy -1.27 -1.27)
          )
          (stroke (width 0.254) (type default) (color 0 0 0 0))
          (fill (type none))
        )
        (polyline
          (pts
            (xy 1.27 0)
            (xy -1.27 0)
          )
          (stroke (width 0) (type default) (color 0 0 0 0))
          (fill (type none))
        )
        (polyline
          (pts
            (xy 1.27 1.27)
            (xy 1.27 -1.27)
            (xy -1.27 0)
            (xy 1.27 1.27)
          )
          (stroke (width 0.254) (type default) (color 0 0 0 0))
          (fill (type none))
        )
      )
      (symbol "1N4148_1_1"
        (pin passive line (at -3.81 0 0) (length 2.54)
          (name "K" (effects (font (size 1.27 1.27))))
          (number "1" (effects (font (size 1.27 1.27))))
        )
        (pin passive line (at 3.81 0 180) (length 2.54)
          (name "A" (effects (font (size 1.27 1.27))))
          (number "2" (effects (font (size 1.27 1.27))))
        )
      )
    )
    (symbol "Transistor_BJT:BC557" (pin_names (offset 0) hide) (in_bom yes) (on_board yes)
      (property "Reference" "Q" (id 0) (at 5.08 1.905 0)
        (effects (font (size 1.27 1.27)) (justify left))
      )
      (property "Value" "BC557" (id 1) (at 5.08 0 0)
        (effects (font (size 1.27 1.27)) (justify left))
      )
      (property "Footprint" "Package_TO_SOT_THT:TO-92_Inline" (id 2) (at 5.08 -1.905 0)
        (effects (font (size 1.27 1.27) italic) (justify left) hide)
      )
      (property "Datasheet" "https://www.onsemi.com/pub/Collateral/BC556BTA-D.pdf" (id 3) (at 0 0 0)
        (effects (font (size 1.27 1.27)) (justify left) hide)
      )
      (property "ki_keywords" "PNP Transistor" (id 4) (at 0 0 0)
        (effects (font (size 1.27 1.27)) hide)
      )
      (property "ki_description" "0.1A Ic, 45V Vce, PNP Small Signal Transistor, TO-92" (id 5) (at 0 0 0)
        (effects (font (size 1.27 1.27)) hide)
      )
      (property "ki_fp_filters" "TO?92*" (id 6) (at 0 0 0)
        (effects (font (size 1.27 1.27)) hide)
      )
      (symbol "BC557_0_1"
        (polyline
          (pts
            (xy 0.635 0.635)
            (xy 2.54 2.54)
          )
          (stroke (width 0) (type default) (color 0 0 0 0))
          (fill (type none))
        )
        (polyline
          (pts
            (xy 0.635 -0.635)
            (xy 2.54 -2.54)
            (xy 2.54 -2.54)
          )
          (stroke (width 0) (type default) (color 0 0 0 0))
          (fill (type none))
        )
        (polyline
          (pts
            (xy 0.635 1.905)
            (xy 0.635 -1.905)
            (xy 0.635 -1.905)
          )
          (stroke (width 0.508) (type default) (color 0 0 0 0))
          (fill (type none))
        )
        (polyline
          (pts
            (xy 2.286 -1.778)
            (xy 1.778 -2.286)
            (xy 1.27 -1.27)
            (xy 2.286 -1.778)
            (xy 2.286 -1.778)
          )
          (stroke (width 0) (type default) (color 0 0 0 0))
          (fill (type outline))
        )
        (circle (center 1.27 0) (radius 2.8194)
          (stroke (width 0.254) (type default) (color 0 0 0 0))
          (fill (type none))
        )
      )
      (symbol "BC557_1_1"
        (pin passive line (at 2.54 5.08 270) (length 2.54)
          (name "C" (effects (font (size 1.27 1.27))))
          (number "1" (effects (font (size 1.27 1.27))))
        )
        (pin input line (at -5.08 0 0) (length 5.715)
          (name "B" (effects (font (size 1.27 1.27))))
          (number "2" (effects (font (size 1.27 1.27))))
        )
        (pin passive line (at 2.54 -5.08 90) (length 2.54)
          (name "E" (effects (font (size 1.27 1.27))))
          (number "3" (effects (font (size 1.27 1.27))))
        )
      )
    )
    (symbol "power:+5V" (power) (pin_names (offset 0)) (in_bom yes) (on_board yes)
      (property "Reference" "#PWR" (id 0) (at 0 -3.81 0)
        (effects (font (size 1.27 1.27)) hide)
      )
      (property "Value" "+5V" (id 1) (at 0 3.556 0)
        (effects (font (size 1.27 1.27)))
      )
      (property "Footprint" "" (id 2) (at 0 0 0)
        (effects (font (size 1.27 1.27)) hide)
      )
      (property "Datasheet" "" (id 3) (at 0 0 0)
        (effects (font (size 1.27 1.27)) hide)
      )
      (property "ki_keywords" "power-flag" (id 4) (at 0 0 0)
        (effects (font (size 1.27 1.27)) hide)
      )
      (property "ki_description" "Power symbol creates a global label with name \"+5V\"" (id 5) (at 0 0 0)
        (effects (font (size 1.27 1.27)) hide)
      )
      (symbol "+5V_0_1"
        (polyline
          (pts
            (xy -0.762 1.27)
            (xy 0 2.54)
          )
          (stroke (width 0) (type default) (color 0 0 0 0))
          (fill (type none))
        )
        (polyline
          (pts
            (xy 0 0)
            (xy 0 2.54)
          )
          (stroke (width 0) (type default) (color 0 0 0 0))
          (fill (type none))
        )
        (polyline
          (pts
            (xy 0 2.54)
            (xy 0.762 1.27)
          )
          (stroke (width 0) (type default) (color 0 0 0 0))
          (fill (type none))
        )
      )
      (symbol "+5V_1_1"
        (pin power_in line (at 0 0 90) (length 0) hide
          (name "+5V" (effects (font (size 1.27 1.27))))
          (number "1" (effects (font (size 1.27 1.27))))
        )
      )
    )
    (symbol "power:GND" (power) (pin_names (offset 0)) (in_bom yes) (on_board yes)
      (property "Reference" "#PWR" (id 0) (at 0 -6.35 0)
        (effects (font (size 1.27 1.27)) hide)
      )
      (property "Value" "GND" (id 1) (at 0 -3.81 0)
        (effects (font (size 1.27 1.27)))
      )
      (property "Footprint" "" (id 2) (at 0 0 0)
        (effects (font (size 1.27 1.27)) hide)
      )
      (property "Datasheet" "" (id 3) (at 0 0 0)
        (effects (font (size 1.27 1.27)) hide)
      )
      (property "ki_keywords" "power-flag" (id 4) (at 0 0 0)
        (effects (font (size 1.27 1.27)) hide)
      )
      (property "ki_description" "Power symbol creates a global label with name \"GND\" , ground" (id 5) (at 0 0 0)
        (effects (font (size 1.27 1.27)) hide)
      )
      (symbol "GND_0_1"
        (polyline
          (pts
            (xy 0 0)
            (xy 0 -1.27)
            (xy 1.27 -1.27)
            (xy 0 -2.54)
            (xy -1.27 -1.27)
            (xy 0 -1.27)
          )
          (stroke (width 0) (type default) (color 0 0 0 0))
          (fill (type none))
        )
      )
      (symbol "GND_1_1"
        (pin power_in line (at 0 0 270) (length 0) hide
          (name "GND" (effects (font (size 1.27 1.27))))
          (number "1" (effects (font (size 1.27 1.27))))
        )
      )
    )
  )

  (junction (at 44.45 100.33) (diameter 0) (color 0 0 0 0)
    (uuid 3749bd3e-d514-46ef-91a1-3fa889399fc0)
  )
  (junction (at 77.47 118.11) (diameter 0) (color 0 0 0 0)
    (uuid 52b3189a-4405-4626-9c3f-2ef1a53850cc)
  )
  (junction (at 187.96 63.5) (diameter 0) (color 0 0 0 0)
    (uuid 842f8b93-c8a2-4aad-9964-1a0721c9692c)
  )
  (junction (at 44.45 97.79) (diameter 0) (color 0 0 0 0)
    (uuid 909e8ef1-8e3c-4af7-84d5-ffd2ff90366f)
  )
  (junction (at 77.47 134.62) (diameter 0) (color 0 0 0 0)
    (uuid a97bea4c-0c20-43cd-a2f9-cc39755cb6b8)
  )
  (junction (at 77.47 63.5) (diameter 0) (color 0 0 0 0)
    (uuid b643a1d6-802a-4450-945d-1329ea416a6d)
  )
  (junction (at 201.93 92.71) (diameter 0) (color 0 0 0 0)
    (uuid d5deecba-f270-4a55-b3f3-5b4431960692)
  )
  (junction (at 187.96 92.71) (diameter 0) (color 0 0 0 0)
    (uuid e0d621dd-4f45-4c7d-be45-c4ff86832cd1)
  )
  (junction (at 144.78 118.11) (diameter 0) (color 0 0 0 0)
    (uuid ee0eec72-1edf-4e4f-a667-cb04a288bfde)
  )
  (junction (at 100.33 134.62) (diameter 0) (color 0 0 0 0)
    (uuid f45307bb-4410-471f-8096-59dea69956d1)
  )
  (junction (at 100.33 118.11) (diameter 0) (color 0 0 0 0)
    (uuid f5360349-4dd2-42d5-9f65-446c4090f780)
  )

  (wire (pts (xy 144.78 92.71) (xy 187.96 92.71))
    (stroke (width 0) (type default) (color 0 0 0 0))
    (uuid 00c9132a-d1be-4a0f-bd5e-67761caca76f)
  )
  (wire (pts (xy 100.33 120.65) (xy 100.33 118.11))
    (stroke (width 0) (type default) (color 0 0 0 0))
    (uuid 03601b7c-d02e-410a-b363-ebd89c685b98)
  )
  (wire (pts (xy 198.12 82.55) (xy 198.12 92.71))
    (stroke (width 0) (type default) (color 0 0 0 0))
    (uuid 060be877-2228-4f65-8d85-0c6547334d59)
  )
  (wire (pts (xy 144.78 97.79) (xy 144.78 92.71))
    (stroke (width 0) (type default) (color 0 0 0 0))
    (uuid 0e9804ff-b363-4992-a369-214d000cdeb8)
  )
  (wire (pts (xy 123.19 105.41) (xy 123.19 111.76))
    (stroke (width 0) (type default) (color 0 0 0 0))
    (uuid 1112fedb-4905-4ab0-a49e-f7b2453d8434)
  )
  (wire (pts (xy 74.93 118.11) (xy 77.47 118.11))
    (stroke (width 0) (type default) (color 0 0 0 0))
    (uuid 1bc14c43-b2ba-445d-b06f-4c3c0da32136)
  )
  (wire (pts (xy 201.93 134.62) (xy 201.93 128.27))
    (stroke (width 0) (type default) (color 0 0 0 0))
    (uuid 1c556e01-4c10-4103-825c-0335362dfe5e)
  )
  (wire (pts (xy 163.83 105.41) (xy 163.83 111.76))
    (stroke (width 0) (type default) (color 0 0 0 0))
    (uuid 250f1be4-19e6-41c9-9f6a-884a509e6281)
  )
  (wire (pts (xy 100.33 118.11) (xy 77.47 118.11))
    (stroke (width 0) (type default) (color 0 0 0 0))
    (uuid 30322dd2-e01c-49a5-99c7-3107228874bd)
  )
  (wire (pts (xy 62.23 118.11) (xy 67.31 118.11))
    (stroke (width 0) (type default) (color 0 0 0 0))
    (uuid 31cdf3a3-d624-4d37-9706-8a605049c988)
  )
  (wire (pts (xy 100.33 118.11) (xy 109.22 118.11))
    (stroke (width 0) (type default) (color 0 0 0 0))
    (uuid 3d23b71f-37ee-4f21-a015-da732aac841e)
  )
  (wire (pts (xy 195.58 82.55) (xy 198.12 82.55))
    (stroke (width 0) (type default) (color 0 0 0 0))
    (uuid 4235bcae-2b0c-4a25-a6b9-f1e0b827cbd7)
  )
  (wire (pts (xy 34.29 97.79) (xy 34.29 96.52))
    (stroke (width 0) (type default) (color 0 0 0 0))
    (uuid 4b7c86c1-467a-4f13-8223-c27b0c8e60e3)
  )
  (wire (pts (xy 77.47 118.11) (xy 77.47 120.65))
    (stroke (width 0) (type default) (color 0 0 0 0))
    (uuid 4be15b14-2e7c-40c0-b8c6-d5c275610aae)
  )
  (wire (pts (xy 201.93 63.5) (xy 201.93 67.31))
    (stroke (width 0) (type default) (color 0 0 0 0))
    (uuid 4c183c5c-8028-43d0-a52b-5132c8077ef9)
  )
  (wire (pts (xy 44.45 97.79) (xy 48.26 97.79))
    (stroke (width 0) (type default) (color 0 0 0 0))
    (uuid 4c4817c1-b350-4f94-9d67-e9d5252ee556)
  )
  (wire (pts (xy 187.96 105.41) (xy 187.96 118.11))
    (stroke (width 0) (type default) (color 0 0 0 0))
    (uuid 4c88ba6d-716c-46f7-8566-ab5bc68018a6)
  )
  (wire (pts (xy 187.96 63.5) (xy 187.96 67.31))
    (stroke (width 0) (type default) (color 0 0 0 0))
    (uuid 4fec75fa-c75b-4b00-8819-c91843e382ee)
  )
  (wire (pts (xy 34.29 100.33) (xy 44.45 100.33))
    (stroke (width 0) (type default) (color 0 0 0 0))
    (uuid 52048a2e-3909-4094-b7a8-70a517c85249)
  )
  (wire (pts (xy 77.47 114.3) (xy 77.47 118.11))
    (stroke (width 0) (type default) (color 0 0 0 0))
    (uuid 54283e56-dfa7-4ee1-bc0a-1e7dc5d174be)
  )
  (wire (pts (xy 137.16 118.11) (xy 144.78 118.11))
    (stroke (width 0) (type default) (color 0 0 0 0))
    (uuid 58adb393-8d47-424b-8e11-6822fd0fb6fa)
  )
  (wire (pts (xy 100.33 134.62) (xy 77.47 134.62))
    (stroke (width 0) (type default) (color 0 0 0 0))
    (uuid 678d5cdb-afd2-404c-8a41-1f40597656e9)
  )
  (wire (pts (xy 201.93 82.55) (xy 201.93 92.71))
    (stroke (width 0) (type default) (color 0 0 0 0))
    (uuid 6fcc63dc-cd5e-4b53-9e89-23dae1311ccf)
  )
  (wire (pts (xy 34.29 100.33) (xy 34.29 102.87))
    (stroke (width 0) (type default) (color 0 0 0 0))
    (uuid 8799adec-7496-4ea9-828e-cce470897df2)
  )
  (wire (pts (xy 201.93 92.71) (xy 201.93 120.65))
    (stroke (width 0) (type default) (color 0 0 0 0))
    (uuid 8a71183c-58fe-4731-8430-0200fe4764b9)
  )
  (wire (pts (xy 77.47 63.5) (xy 187.96 63.5))
    (stroke (width 0) (type default) (color 0 0 0 0))
    (uuid 8a720e95-42b4-4627-ad5c-741302791b1c)
  )
  (wire (pts (xy 44.45 63.5) (xy 77.47 63.5))
    (stroke (width 0) (type default) (color 0 0 0 0))
    (uuid 8d52ff84-5938-4a78-8bf8-bf6563a5de52)
  )
  (wire (pts (xy 44.45 134.62) (xy 44.45 100.33))
    (stroke (width 0) (type default) (color 0 0 0 0))
    (uuid 8dc19ed4-9bc6-483f-9bd7-97b357c480f9)
  )
  (wire (pts (xy 34.29 97.79) (xy 44.45 97.79))
    (stroke (width 0) (type default) (color 0 0 0 0))
    (uuid 909c73f0-4eb7-4d5c-9b23-59047346f46f)
  )
  (wire (pts (xy 77.47 134.62) (xy 77.47 128.27))
    (stroke (width 0) (type default) (color 0 0 0 0))
    (uuid 9b8e88bd-b58c-4fac-8d1f-7b2b4d8286cb)
  )
  (wire (pts (xy 187.96 74.93) (xy 187.96 77.47))
    (stroke (width 0) (type default) (color 0 0 0 0))
    (uuid 9c0dd128-fcbc-4ce9-a130-ead488e5d8fb)
  )
  (wire (pts (xy 187.96 63.5) (xy 201.93 63.5))
    (stroke (width 0) (type default) (color 0 0 0 0))
    (uuid a7c94817-a7ec-4a18-809a-6cd17b7ae294)
  )
  (wire (pts (xy 144.78 105.41) (xy 144.78 118.11))
    (stroke (width 0) (type default) (color 0 0 0 0))
    (uuid a97596a6-e601-4027-9237-481c0097514a)
  )
  (wire (pts (xy 100.33 134.62) (xy 201.93 134.62))
    (stroke (width 0) (type default) (color 0 0 0 0))
    (uuid afe52567-315a-4f2e-aaf4-68f189f67754)
  )
  (wire (pts (xy 100.33 134.62) (xy 100.33 128.27))
    (stroke (width 0) (type default) (color 0 0 0 0))
    (uuid b15050db-fa5c-4434-a6dd-a37c6b80429c)
  )
  (wire (pts (xy 187.96 92.71) (xy 187.96 97.79))
    (stroke (width 0) (type default) (color 0 0 0 0))
    (uuid b44fa591-50c3-47f6-b1a1-4b962f22aa4a)
  )
  (wire (pts (xy 77.47 106.68) (xy 77.47 63.5))
    (stroke (width 0) (type default) (color 0 0 0 0))
    (uuid b592dc3b-c0af-47e4-aa8c-ace4b21044e2)
  )
  (wire (pts (xy 77.47 134.62) (xy 44.45 134.62))
    (stroke (width 0) (type default) (color 0 0 0 0))
    (uuid b67750ea-739c-4df6-bb72-ebfbec8f7f8e)
  )
  (wire (pts (xy 44.45 97.79) (xy 44.45 63.5))
    (stroke (width 0) (type default) (color 0 0 0 0))
    (uuid b7f6decb-1e99-4610-a9c2-e1ed649b3378)
  )
  (wire (pts (xy 44.45 100.33) (xy 48.26 100.33))
    (stroke (width 0) (type default) (color 0 0 0 0))
    (uuid bbfb89dd-0889-4033-961e-173dea5b6301)
  )
  (wire (pts (xy 177.8 118.11) (xy 187.96 118.11))
    (stroke (width 0) (type default) (color 0 0 0 0))
    (uuid c29b7f86-3014-4a0a-a9e3-f3977c1bd37f)
  )
  (wire (pts (xy 187.96 87.63) (xy 187.96 92.71))
    (stroke (width 0) (type default) (color 0 0 0 0))
    (uuid c4f22ce5-11a1-437c-9039-275ff0346dff)
  )
  (wire (pts (xy 198.12 92.71) (xy 201.93 92.71))
    (stroke (width 0) (type default) (color 0 0 0 0))
    (uuid fb628cea-96ec-48b3-a611-ea1cbe03d403)
  )
  (wire (pts (xy 144.78 118.11) (xy 149.86 118.11))
    (stroke (width 0) (type default) (color 0 0 0 0))
    (uuid fc73c478-60ad-4054-8984-dc0d9aa4f93b)
  )

  (symbol (lib_id "Diode:1N4148") (at 77.47 110.49 270) (unit 1)
    (in_bom yes) (on_board yes) (fields_autoplaced)
    (uuid 220abf56-04d3-4d95-9fff-e9ac97ad8e0f)
    (property "Reference" "D1" (id 0) (at 80.01 109.2199 90)
      (effects (font (size 1.27 1.27)) (justify left))
    )
    (property "Value" "1N4148" (id 1) (at 80.01 111.7599 90)
      (effects (font (size 1.27 1.27)) (justify left))
    )
    (property "Footprint" "Diode_THT:D_DO-35_SOD27_P7.62mm_Horizontal" (id 2) (at 73.025 110.49 0)
      (effects (font (size 1.27 1.27)) hide)
    )
    (property "Datasheet" "https://assets.nexperia.com/documents/data-sheet/1N4148_1N4448.pdf" (id 3) (at 77.47 110.49 0)
      (effects (font (size 1.27 1.27)) hide)
    )
    (pin "1" (uuid 980a9e3a-5e4c-4a2c-ab62-b121bce318f3))
    (pin "2" (uuid 2977a273-74ae-44ff-89a3-a0ffc11e450e))
  )

  (symbol (lib_id "power:GND") (at 34.29 102.87 0) (unit 1)
    (in_bom yes) (on_board yes) (fields_autoplaced)
    (uuid 2925bba4-16a6-456f-ab70-38d852aec156)
    (property "Reference" "#PWR02" (id 0) (at 34.29 109.22 0)
      (effects (font (size 1.27 1.27)) hide)
    )
    (property "Value" "GND" (id 1) (at 34.29 107.95 0))
    (property "Footprint" "" (id 2) (at 34.29 102.87 0)
      (effects (font (size 1.27 1.27)) hide)
    )
    (property "Datasheet" "" (id 3) (at 34.29 102.87 0)
      (effects (font (size 1.27 1.27)) hide)
    )
    (pin "1" (uuid cac51fbc-6dd9-42ce-b5a7-fa508e42fde4))
  )

  (symbol (lib_id "Transistor_BJT:BC557") (at 190.5 82.55 180) (unit 1)
    (in_bom yes) (on_board yes) (fields_autoplaced)
    (uuid 2ba37988-8550-46a5-b70e-9b4d56cd5fc4)
    (property "Reference" "Q1" (id 0) (at 185.42 81.2799 0)
      (effects (font (size 1.27 1.27)) (justify left))
    )
    (property "Value" "BC557" (id 1) (at 185.42 83.8199 0)
      (effects (font (size 1.27 1.27)) (justify left))
    )
    (property "Footprint" "Package_TO_SOT_THT:TO-92_Inline" (id 2) (at 185.42 80.645 0)
      (effects (font (size 1.27 1.27) italic) (justify left) hide)
    )
    (property "Datasheet" "https://www.onsemi.com/pub/Collateral/BC556BTA-D.pdf" (id 3) (at 190.5 82.55 0)
      (effects (font (size 1.27 1.27)) (justify left) hide)
    )
    (pin "1" (uuid 1125ef56-3ab9-443c-af0c-41732aae25ac))
    (pin "2" (uuid 81a24609-666a-42a8-9bee-284a0ff592d2))
    (pin "3" (uuid e854169b-adad-4890-8df9-799a0a3abeef))
  )

  (symbol (lib_id "Diode:1N4148") (at 77.47 124.46 270) (unit 1)
    (in_bom yes) (on_board yes) (fields_autoplaced)
    (uuid 2bae67b6-5c42-4442-8d96-762d0484254c)
    (property "Reference" "D2" (id 0) (at 80.01 123.1899 90)
      (effects (font (size 1.27 1.27)) (justify left))
    )
    (property "Value" "1N4148" (id 1) (at 80.01 125.7299 90)
      (effects (font (size 1.27 1.27)) (justify left))
    )
    (property "Footprint" "Diode_THT:D_DO-35_SOD27_P7.62mm_Horizontal" (id 2) (at 73.025 124.46 0)
      (effects (font (size 1.27 1.27)) hide)
    )
    (property "Datasheet" "https://assets.nexperia.com/documents/data-sheet/1N4148_1N4448.pdf" (id 3) (at 77.47 124.46 0)
      (effects (font (size 1.27 1.27)) hide)
    )
    (pin "1" (uuid 1591e88f-206c-4b5e-9b92-fee6e2df70a5))
    (pin "2" (uuid 2509cf02-34fa-4d16-af96-1b8e42f2c603))
  )

  (symbol (lib_id "4xxx_IEEE:4049") (at 163.83 118.11 0) (unit 2)
    (in_bom yes) (on_board yes)
    (uuid 3be7ac8a-6125-4750-9c57-376e2012f58e)
    (property "Reference" "U1" (id 0) (at 173.99 107.95 0))
    (property "Value" "4049" (id 1) (at 173.99 110.49 0))
    (property "Footprint" "Package_DIP:DIP-16_W7.62mm_Socket" (id 2) (at 163.83 118.11 0)
      (effects (font (size 1.27 1.27)) hide)
    )
    (property "Datasheet" "" (id 3) (at 163.83 118.11 0)
      (effects (font (size 1.27 1.27)) hide)
    )
    (pin "1" (uuid 24e37b04-68ac-444f-a6e5-ff3d9864b7a4))
    (pin "8" (uuid 7e69cb63-9994-4881-bfa3-179288e2ad84))
    (pin "2" (uuid d5e0fb63-3a75-439c-838d-1c299d905bd8))
    (pin "3" (uuid 88c768af-41fc-4e3d-9eea-0e89ffcdeb91))
    (pin "4" (uuid 0a93ce70-d610-4903-9541-7331d1305f6d))
    (pin "5" (uuid a8e0cc34-c929-4946-8d27-c36d7fe587f6))
    (pin "6" (uuid baa3e956-cc89-4708-8569-150cd45cf26b))
    (pin "7" (uuid bbbffdbb-f675-4091-a16d-8c36c15f6202))
    (pin "10" (uuid efab2a08-a18c-4a5d-afec-40c3cb35c12d))
    (pin "9" (uuid 58d73c89-98e3-427d-a186-610c4388bb94))
    (pin "11" (uuid b53679ba-8737-496a-83e8-50634f9ad614))
    (pin "12" (uuid f6421599-c2e8-47c9-8724-fb2631611a48))
    (pin "14" (uuid 426647ef-1df1-43dd-b9ee-67264fe3fa7e))
    (pin "15" (uuid cfee1750-959f-4488-a0df-1f4709d6d46a))
  )

  (symbol (lib_id "4xxx_IEEE:4049") (at 123.19 118.11 0) (unit 1)
    (in_bom yes) (on_board yes)
    (uuid 3cc7128e-201e-499f-8eb1-293d45ec7c3e)
    (property "Reference" "U1" (id 0) (at 132.08 107.95 0))
    (property "Value" "4049" (id 1) (at 132.08 110.49 0))
    (property "Footprint" "Package_DIP:DIP-16_W7.62mm_Socket" (id 2) (at 123.19 118.11 0)
      (effects (font (size 1.27 1.27)) hide)
    )
    (property "Datasheet" "" (id 3) (at 123.19 118.11 0)
      (effects (font (size 1.27 1.27)) hide)
    )
    (pin "1" (uuid 5342f574-fc15-46f0-9d40-b58e542d8c2d))
    (pin "8" (uuid a96d63e3-8431-4df0-a63e-320fb55460f1))
    (pin "2" (uuid 7dc38486-fd6b-4df1-89b1-4586007973ee))
    (pin "3" (uuid abf38453-8cb6-480b-813b-63ff43d41d6e))
    (pin "4" (uuid 9c2b9c0c-308a-490f-a136-9509d9c66ef2))
    (pin "5" (uuid c9e699b3-5322-49de-aa5b-aee73a67c555))
    (pin "6" (uuid 7a056bd3-ac37-46bc-8d67-d10c770fd13c))
    (pin "7" (uuid 97ba0175-61d5-41d8-9498-d02fff16c8b2))
    (pin "10" (uuid 28682e2d-3d2b-45cf-8a1d-6cdbb9dc0258))
    (pin "9" (uuid 55537087-b1ef-4eda-87de-ba3c8776e745))
    (pin "11" (uuid 4a7b2bed-664e-466e-93d5-b75794678943))
    (pin "12" (uuid 6f900dbd-626a-4583-b5e2-c0a038d64f3d))
    (pin "14" (uuid 8f89fa8f-e170-4f0b-8ba2-232166936a08))
    (pin "15" (uuid 083f1c66-32ba-4757-adba-95f7feb11ece))
  )

  (symbol (lib_id "Device:R") (at 187.96 71.12 180) (unit 1)
    (in_bom yes) (on_board yes) (fields_autoplaced)
    (uuid 3f477930-f181-48c6-b931-985f447e85ea)
    (property "Reference" "R3" (id 0) (at 190.5 69.8499 0)
      (effects (font (size 1.27 1.27)) (justify right))
    )
    (property "Value" "R" (id 1) (at 190.5 72.3899 0)
      (effects (font (size 1.27 1.27)) (justify right))
    )
    (property "Footprint" "Resistor_THT:R_Axial_DIN0207_L6.3mm_D2.5mm_P15.24mm_Horizontal" (id 2) (at 189.738 71.12 90)
      (effects (font (size 1.27 1.27)) hide)
    )
    (property "Datasheet" "~" (id 3) (at 187.96 71.12 0)
      (effects (font (size 1.27 1.27)) hide)
    )
    (pin "1" (uuid 3aa9ca49-c387-4c63-a318-4d754e00f971))
    (pin "2" (uuid c8f7860c-8f7d-4a51-a47e-e98504f1dd72))
  )

  (symbol (lib_id "power:+5V") (at 123.19 105.41 0) (unit 1)
    (in_bom yes) (on_board yes) (fields_autoplaced)
    (uuid 46021093-5495-4c1a-804d-f940df30277c)
    (property "Reference" "#PWR0101" (id 0) (at 123.19 109.22 0)
      (effects (font (size 1.27 1.27)) hide)
    )
    (property "Value" "+5V" (id 1) (at 123.19 100.33 0))
    (property "Footprint" "" (id 2) (at 123.19 105.41 0)
      (effects (font (size 1.27 1.27)) hide)
    )
    (property "Datasheet" "" (id 3) (at 123.19 105.41 0)
      (effects (font (size 1.27 1.27)) hide)
    )
    (pin "1" (uuid ee0fa8ba-9832-48a8-86b8-4aaf35973904))
  )

  (symbol (lib_id "Connector_Generic:Conn_01x02") (at 53.34 97.79 0) (unit 1)
    (in_bom yes) (on_board yes) (fields_autoplaced)
    (uuid 600fb05f-2485-4334-8eab-779ed0e22df5)
    (property "Reference" "J1" (id 0) (at 55.88 97.7899 0)
      (effects (font (size 1.27 1.27)) (justify left))
    )
    (property "Value" "Conn_01x02" (id 1) (at 55.88 100.3299 0)
      (effects (font (size 1.27 1.27)) (justify left))
    )
    (property "Footprint" "Connector_PinHeader_1.00mm:PinHeader_1x02_P1.00mm_Vertical" (id 2) (at 53.34 97.79 0)
      (effects (font (size 1.27 1.27)) hide)
    )
    (property "Datasheet" "~" (id 3) (at 53.34 97.79 0)
      (effects (font (size 1.27 1.27)) hide)
    )
    (pin "1" (uuid 63b09272-0933-41f2-bcc5-25cd328b8223))
    (pin "2" (uuid 017b3d9f-8550-435f-9210-d3c1ab9b72cc))
  )

  (symbol (lib_id "Device:R") (at 100.33 124.46 180) (unit 1)
    (in_bom yes) (on_board yes) (fields_autoplaced)
    (uuid 6b690740-1def-4273-afaa-4cfc815598f2)
    (property "Reference" "R2" (id 0) (at 102.87 123.1899 0)
      (effects (font (size 1.27 1.27)) (justify right))
    )
    (property "Value" "R" (id 1) (at 102.87 125.7299 0)
      (effects (font (size 1.27 1.27)) (justify right))
    )
    (property "Footprint" "Resistor_THT:R_Axial_DIN0207_L6.3mm_D2.5mm_P15.24mm_Horizontal" (id 2) (at 102.108 124.46 90)
      (effects (font (size 1.27 1.27)) hide)
    )
    (property "Datasheet" "~" (id 3) (at 100.33 124.46 0)
      (effects (font (size 1.27 1.27)) hide)
    )
    (pin "1" (uuid 3ee68a36-4886-4f4a-b8c9-ee142ab63af6))
    (pin "2" (uuid fb14694a-d058-4de5-b938-6487345a7ab4))
  )

  (symbol (lib_id "power:+5V") (at 34.29 96.52 0) (unit 1)
    (in_bom yes) (on_board yes) (fields_autoplaced)
    (uuid 725290e2-292d-45e8-8989-ffa48d951c39)
    (property "Reference" "#PWR01" (id 0) (at 34.29 100.33 0)
      (effects (font (size 1.27 1.27)) hide)
    )
    (property "Value" "+5V" (id 1) (at 34.29 91.44 0))
    (property "Footprint" "" (id 2) (at 34.29 96.52 0)
      (effects (font (size 1.27 1.27)) hide)
    )
    (property "Datasheet" "" (id 3) (at 34.29 96.52 0)
      (effects (font (size 1.27 1.27)) hide)
    )
    (pin "1" (uuid 3322951b-3bdd-4b3a-a0e0-79d6b7eb1b55))
  )

  (symbol (lib_id "Device:R") (at 71.12 118.11 90) (unit 1)
    (in_bom yes) (on_board yes) (fields_autoplaced)
    (uuid 79409ea1-4890-4d70-bfc9-94a1f13d675d)
    (property "Reference" "R1" (id 0) (at 71.12 111.76 90))
    (property "Value" "R" (id 1) (at 71.12 114.3 90))
    (property "Footprint" "Resistor_THT:R_Axial_DIN0207_L6.3mm_D2.5mm_P15.24mm_Horizontal" (id 2) (at 71.12 119.888 90)
      (effects (font (size 1.27 1.27)) hide)
    )
    (property "Datasheet" "~" (id 3) (at 71.12 118.11 0)
      (effects (font (size 1.27 1.27)) hide)
    )
    (pin "1" (uuid 191a39be-bf80-4f81-bfe5-a859ab593e9f))
    (pin "2" (uuid fee8b3df-879d-4180-abeb-0b698d88c2ca))
  )

  (symbol (lib_id "Device:LED") (at 144.78 101.6 90) (unit 1)
    (in_bom yes) (on_board yes) (fields_autoplaced)
    (uuid 837b3c03-87ce-4ff6-ba97-8c9bff187d40)
    (property "Reference" "D3" (id 0) (at 148.59 101.9174 90)
      (effects (font (size 1.27 1.27)) (justify right))
    )
    (property "Value" "LED" (id 1) (at 148.59 104.4574 90)
      (effects (font (size 1.27 1.27)) (justify right))
    )
    (property "Footprint" "LED_THT:LED_D5.0mm" (id 2) (at 144.78 101.6 0)
      (effects (font (size 1.27 1.27)) hide)
    )
    (property "Datasheet" "~" (id 3) (at 144.78 101.6 0)
      (effects (font (size 1.27 1.27)) hide)
    )
    (pin "1" (uuid 17f1db02-9a50-4d43-8421-4393b7c9d3d7))
    (pin "2" (uuid c5dc193d-9e69-48c0-b730-a981955de5ed))
  )

  (symbol (lib_id "Device:R") (at 201.93 124.46 180) (unit 1)
    (in_bom yes) (on_board yes) (fields_autoplaced)
    (uuid 86f0aeda-12af-488e-9359-a0339aaec13b)
    (property "Reference" "R4" (id 0) (at 204.47 123.1899 0)
      (effects (font (size 1.27 1.27)) (justify right))
    )
    (property "Value" "R" (id 1) (at 204.47 125.7299 0)
      (effects (font (size 1.27 1.27)) (justify right))
    )
    (property "Footprint" "Resistor_THT:R_Axial_DIN0207_L6.3mm_D2.5mm_P15.24mm_Horizontal" (id 2) (at 203.708 124.46 90)
      (effects (font (size 1.27 1.27)) hide)
    )
    (property "Datasheet" "~" (id 3) (at 201.93 124.46 0)
      (effects (font (size 1.27 1.27)) hide)
    )
    (pin "1" (uuid 186a18d1-3ea0-40c7-8be5-a6f0dcac699b))
    (pin "2" (uuid 419a42c5-15e4-43c5-ac07-3de0657cb077))
  )

  (symbol (lib_id "Diode:1N4148") (at 201.93 78.74 90) (unit 1)
    (in_bom yes) (on_board yes) (fields_autoplaced)
    (uuid bca900d2-6bef-45f0-9197-973944ca2eb6)
    (property "Reference" "D6" (id 0) (at 204.47 77.4699 90)
      (effects (font (size 1.27 1.27)) (justify right))
    )
    (property "Value" "1N4148" (id 1) (at 204.47 80.0099 90)
      (effects (font (size 1.27 1.27)) (justify right))
    )
    (property "Footprint" "Diode_THT:D_DO-35_SOD27_P7.62mm_Horizontal" (id 2) (at 206.375 78.74 0)
      (effects (font (size 1.27 1.27)) hide)
    )
    (property "Datasheet" "https://assets.nexperia.com/documents/data-sheet/1N4148_1N4448.pdf" (id 3) (at 201.93 78.74 0)
      (effects (font (size 1.27 1.27)) hide)
    )
    (pin "1" (uuid 00ce6a22-34dd-4306-ac88-91904be9c871))
    (pin "2" (uuid a78dfef3-9b43-4647-b639-e03ed73e5f75))
  )

  (symbol (lib_id "power:+5V") (at 163.83 105.41 0) (unit 1)
    (in_bom yes) (on_board yes) (fields_autoplaced)
    (uuid beeb620c-dac8-4de0-a2bf-0ff135bb643e)
    (property "Reference" "#PWR0102" (id 0) (at 163.83 109.22 0)
      (effects (font (size 1.27 1.27)) hide)
    )
    (property "Value" "+5V" (id 1) (at 163.83 100.33 0))
    (property "Footprint" "" (id 2) (at 163.83 105.41 0)
      (effects (font (size 1.27 1.27)) hide)
    )
    (property "Datasheet" "" (id 3) (at 163.83 105.41 0)
      (effects (font (size 1.27 1.27)) hide)
    )
    (pin "1" (uuid f279a4bd-a7cb-4587-8f30-b15718771d14))
  )

  (symbol (lib_id "Diode:1N4148") (at 201.93 71.12 90) (unit 1)
    (in_bom yes) (on_board yes) (fields_autoplaced)
    (uuid c150e47c-c05b-437d-beac-ba85b167bfca)
    (property "Reference" "D5" (id 0) (at 204.47 69.8499 90)
      (effects (font (size 1.27 1.27)) (justify right))
    )
    (property "Value" "1N4148" (id 1) (at 204.47 72.3899 90)
      (effects (font (size 1.27 1.27)) (justify right))
    )
    (property "Footprint" "Diode_THT:D_DO-35_SOD27_P7.62mm_Horizontal" (id 2) (at 206.375 71.12 0)
      (effects (font (size 1.27 1.27)) hide)
    )
    (property "Datasheet" "https://assets.nexperia.com/documents/data-sheet/1N4148_1N4448.pdf" (id 3) (at 201.93 71.12 0)
      (effects (font (size 1.27 1.27)) hide)
    )
    (pin "1" (uuid 424767c5-b1c3-46ca-8cef-ae00c6bc2c17))
    (pin "2" (uuid a935a04d-4d59-4519-8586-3a24256a1acb))
  )

  (symbol (lib_id "Connector_Generic:Conn_01x01") (at 57.15 118.11 180) (unit 1)
    (in_bom yes) (on_board yes) (fields_autoplaced)
    (uuid ed48efc7-266e-4b9b-a59e-b5b06e9d5922)
    (property "Reference" "J2" (id 0) (at 57.15 111.76 0))
    (property "Value" "Conn_01x01" (id 1) (at 57.15 114.3 0))
    (property "Footprint" "Connector_PinHeader_1.00mm:PinHeader_1x01_P1.00mm_Vertical" (id 2) (at 57.15 118.11 0)
      (effects (font (size 1.27 1.27)) hide)
    )
    (property "Datasheet" "~" (id 3) (at 57.15 118.11 0)
      (effects (font (size 1.27 1.27)) hide)
    )
    (pin "1" (uuid f6d30b40-a078-4ef2-be71-f2329c2c3419))
  )

  (symbol (lib_id "Device:LED") (at 187.96 101.6 90) (unit 1)
    (in_bom yes) (on_board yes) (fields_autoplaced)
    (uuid fc9bb8b3-b3c1-416c-a09b-fc99e38e6b1a)
    (property "Reference" "D4" (id 0) (at 191.77 101.9174 90)
      (effects (font (size 1.27 1.27)) (justify right))
    )
    (property "Value" "LED" (id 1) (at 191.77 104.4574 90)
      (effects (font (size 1.27 1.27)) (justify right))
    )
    (property "Footprint" "LED_THT:LED_D5.0mm" (id 2) (at 187.96 101.6 0)
      (effects (font (size 1.27 1.27)) hide)
    )
    (property "Datasheet" "~" (id 3) (at 187.96 101.6 0)
      (effects (font (size 1.27 1.27)) hide)
    )
    (pin "1" (uuid 8a839196-9dfe-476a-a1a3-ce407a9bd191))
    (pin "2" (uuid f406d8f6-2676-4532-9eb9-c3d74688c11b))
  )

  (sheet_instances
    (path "/" (page "1"))
  )

  (symbol_instances
    (path "/725290e2-292d-45e8-8989-ffa48d951c39"
      (reference "#PWR01") (unit 1) (value "+5V") (footprint "")
    )
    (path "/2925bba4-16a6-456f-ab70-38d852aec156"
      (reference "#PWR02") (unit 1) (value "GND") (footprint "")
    )
    (path "/46021093-5495-4c1a-804d-f940df30277c"
      (reference "#PWR0101") (unit 1) (value "+5V") (footprint "")
    )
    (path "/beeb620c-dac8-4de0-a2bf-0ff135bb643e"
      (reference "#PWR0102") (unit 1) (value "+5V") (footprint "")
    )
    (path "/220abf56-04d3-4d95-9fff-e9ac97ad8e0f"
      (reference "D1") (unit 1) (value "1N4148") (footprint "Diode_THT:D_DO-35_SOD27_P7.62mm_Horizontal")
    )
    (path "/2bae67b6-5c42-4442-8d96-762d0484254c"
      (reference "D2") (unit 1) (value "1N4148") (footprint "Diode_THT:D_DO-35_SOD27_P7.62mm_Horizontal")
    )
    (path "/837b3c03-87ce-4ff6-ba97-8c9bff187d40"
      (reference "D3") (unit 1) (value "LED") (footprint "LED_THT:LED_D5.0mm")
    )
    (path "/fc9bb8b3-b3c1-416c-a09b-fc99e38e6b1a"
      (reference "D4") (unit 1) (value "LED") (footprint "LED_THT:LED_D5.0mm")
    )
    (path "/c150e47c-c05b-437d-beac-ba85b167bfca"
      (reference "D5") (unit 1) (value "1N4148") (footprint "Diode_THT:D_DO-35_SOD27_P7.62mm_Horizontal")
    )
    (path "/bca900d2-6bef-45f0-9197-973944ca2eb6"
      (reference "D6") (unit 1) (value "1N4148") (footprint "Diode_THT:D_DO-35_SOD27_P7.62mm_Horizontal")
    )
    (path "/600fb05f-2485-4334-8eab-779ed0e22df5"
      (reference "J1") (unit 1) (value "Conn_01x02") (footprint "Connector_PinHeader_1.00mm:PinHeader_1x02_P1.00mm_Vertical")
    )
    (path "/ed48efc7-266e-4b9b-a59e-b5b06e9d5922"
      (reference "J2") (unit 1) (value "Conn_01x01") (footprint "Connector_PinHeader_1.00mm:PinHeader_1x01_P1.00mm_Vertical")
    )
    (path "/2ba37988-8550-46a5-b70e-9b4d56cd5fc4"
      (reference "Q1") (unit 1) (value "BC557") (footprint "Package_TO_SOT_THT:TO-92_Inline")
    )
    (path "/79409ea1-4890-4d70-bfc9-94a1f13d675d"
      (reference "R1") (unit 1) (value "R") (footprint "Resistor_THT:R_Axial_DIN0207_L6.3mm_D2.5mm_P15.24mm_Horizontal")
    )
    (path "/6b690740-1def-4273-afaa-4cfc815598f2"
      (reference "R2") (unit 1) (value "R") (footprint "Resistor_THT:R_Axial_DIN0207_L6.3mm_D2.5mm_P15.24mm_Horizontal")
    )
    (path "/3f477930-f181-48c6-b931-985f447e85ea"
      (reference "R3") (unit 1) (value "R") (footprint "Resistor_THT:R_Axial_DIN0207_L6.3mm_D2.5mm_P15.24mm_Horizontal")
    )
    (path "/86f0aeda-12af-488e-9359-a0339aaec13b"
      (reference "R4") (unit 1) (value "R") (footprint "Resistor_THT:R_Axial_DIN0207_L6.3mm_D2.5mm_P15.24mm_Horizontal")
    )
    (path "/3cc7128e-201e-499f-8eb1-293d45ec7c3e"
      (reference "U1") (unit 1) (value "4049") (footprint "Package_DIP:DIP-16_W7.62mm_Socket")
    )
    (path "/3be7ac8a-6125-4750-9c57-376e2012f58e"
      (reference "U1") (unit 2) (value "4049") (footprint "Package_DIP:DIP-16_W7.62mm_Socket")
    )
  )
)
